{   
    "baseURL":"http://5e6f6750f5e95b0016d4739b.mockapi.io",
    "endpoints":
    {
       "login":"/login",
       "spot":"/spot",
       "user":"/user",
       "favourites":"/favourites"
    }
 }